<svg width="8" height="15" viewBox="0 0 8 15" version="1.1" xmlns="http://www.w3.org/2000/svg"
     xmlns:xlink="http://www.w3.org/1999/xlink">
  <g id="Canvas" transform="translate(-980 -1332)">
    <use xlink:href="#path0_fill" transform="translate(980 1332)" fill="#6D6F7B"/>
  </g>
  <defs>
    <path id="path0_fill" fill-rule="evenodd"
          d="M 5.4568 15L 5.4568 8.25L 7.6432 8.25L 8 5.25L 5.4568 5.25L 5.4568 3.789C 5.4568 3.0165 5.4784 2.25 6.6296 2.25L 7.796 2.25L 7.796 0.105C 7.796 0.07275 6.7936 0 5.78 0C 3.664 0 2.3392 1.24275 2.3392 3.525L 2.3392 5.25L 0 5.25L 0 8.25L 2.3384 8.25L 2.3384 15L 5.4568 15Z"/>
  </defs>
</svg>
