<svg width="20" height="14" viewBox="0 0 20 14" version="1.1" xmlns="http://www.w3.org/2000/svg"
     xmlns:xlink="http://www.w3.org/1999/xlink">
  <g id="Canvas" transform="translate(-1011 -1333)">
    <use xlink:href="#path0_fill" transform="translate(1011.11 1333)" fill="#6D6F7B"/>
  </g>
  <defs>
    <path id="path0_fill" fill-rule="evenodd"
          d="M 7.90063 9.48044L 7.90063 3.9303C 9.87094 4.8575 11.397 5.7533 13.2017 6.71865C 11.7132 7.54443 9.87094 8.47018 7.90063 9.48044ZM 18.8812 1.16998C 18.5413 0.721842 17.962 0.373651 17.3454 0.258243C 15.5326 -0.0855963 4.22405 -0.0865655 2.41234 0.258243C 1.91779 0.350963 1.47742 0.575033 1.09912 0.923215C -0.494867 2.40286 0.00461939 10.3367 0.388823 11.6217C 0.550389 12.178 0.75925 12.5793 1.02229 12.8425C 1.36117 13.1907 1.82518 13.4307 2.35815 13.5379C 3.85066 13.847 11.5398 14.0194 17.3138 13.5843C 17.8458 13.4916 18.3167 13.2443 18.6881 12.8812C 20.1619 11.4078 20.0614 3.02776 18.8812 1.16998Z"/>
  </defs>
</svg>
